{
    "capabilities": [
    {
      "deviceName": "PixelPolo",
      "maxInstances": 1,
			"version": "10.0",
			"platform": "Android",
			"udid": "emulator-5554",
      "app": "~Desktop/ACT/asl/hago.apk",
      "appPackage": "hk.org.ha.testhago",
      "autoGrantPermission": true
      }
    ],
	"configuration": {
		"cleanUpCycle": 2000,
		"timeout": 30000,
		"proxy": "org.openqa.grid.selenium.proxy.DefaultRemoteProxy",
		"hubHost": "localhost",
    	"hubPort": 8094,
		"maxSession": 1,
		"register": true,
		"registerCycle": 5000
	}
}
