{
    "capabilities": [
    {
      "deviceName": "iPhone 11",
      "maxInstances": 1,
			"version": "13.3",
			"platform": "IOS",
			"udid": "7fe5b958ca09776a43ce12432a2119972ebb5ccb",
      "app": "~Desktop/twl640/Desktop/ACT/asl/hago.ipa",
      "autoAcceptAlerts": true,
      "updatedWDABundleId": "hago.mobile.automationRunner"
      }
    ],
	"configuration": {
		"cleanUpCycle": 2000,
		"timeout": 30000,
		"proxy": "org.openqa.grid.selenium.proxy.DefaultRemoteProxy",
		"hubHost": "localhost",
    	"hubPort": 8094,
		"maxSession": 1,
		"register": true,
		"registerCycle": 5000
	}
}
