{
    "capabilities": [
    {
      "deviceName": "Tsang Wailok's iPhone X",
      "maxInstances": 1,
			"version": "13.5",
			"platform": "iOS",
			"udid": "18d3493e0fcb3b88c79e08077ace64d68aba37d9",
      "app": "/Users/twl640/Desktop/ACT/asl/hago.ipa",
      "autoAcceptAlerts": true
      }
    ],
	"configuration": {
		"cleanUpCycle": 2000,
		"timeout": 30000,
		"proxy": "org.openqa.grid.selenium.proxy.DefaultRemoteProxy",
		"hubHost": "localhost",
    	"hubPort": 8094,
		"maxSession": 1,
		"register": true,
		"registerCycle": 5000
	}
}
