{
  "host": null,
  "port": 4444,
  "newSessionWaitTimeout": -1,
  "servlets" : [],
  "prioritizer": null,
  "throwOnCapabilityNotPresent": true,
  "nodePolling": 5000,
  "timeout": 1300,
  "cleanUpCycle": 5000,
  "browserTimeout": 1300,
  "jettyMaxThreads":-1
}
